Find all subgraphs in pairs for every subset of edges — calculate_subgraph_structure • associationsubgraphs
…
    subgraph list column

The subgraph list column in the results contains information on the present subgraphs at each step. It is a list with the following format, but can be turned into a dataframe/tibble easily with dplyr::as_tibble/as.data.frame.
ColumnDescription
idInteger ID for subgraph. Can be used to track subgraph evolution over steps.
sizeHow many variables/nodes subgraph has
densityDensity of subgraph. Scale from >0 - 1. Where a density of 1 is a fully-connected subgraph.
strengthHow many unique nodes/variables are currently in network
first_edge0-based integer index of first edge that made up subgraph. Used internally to match subgraphs in interactive visualizations with these results.

    Examples

virus_associations <- dplyr::arrange(virus_net, dplyr::desc(strength))
calculate_subgraph_structure(head(virus_associations, 1000))
#> # A tibble: 327 × 11
#>     step n_edges stren…¹ n_nod…² n_sub…³ max_s…⁴ rel_m…⁵ avg_s…⁶ avg_d…⁷ n_tri…⁸
#>    <int>   <int>   <dbl>   <int>   <int>   <int>   <dbl>   <dbl>   <dbl>   <int>
#>  1     1       1  0.0916       2       1       2   1         2     1           0
#>  2     2       2  0.0836       3       1       3   1         3     0.667       1
#>  3     3       3  0.0750       5       2       3   0.6       2.5   0.833       1
#>  4     4       4  0.0729       6       2       3   0.5       3     0.667       2
#>  5     5       5  0.0728       6       2       3   0.5       3     0.833       2
#>  6     6       6  0.0704       7       2       4   0.571     3.5   0.667       2
#>  7     7       7  0.0689       8       2       4   0.5       4     0.583       2
#>  8     8       8  0.0676       9       2       5   0.556     4.5   0.533       2
#>  9     9      10  0.0651      12       3       5   0.417     4     0.578       3
#> 10    10      11  0.0623      14       4       5   0.357     3.5   0.683       3
#> # … with 317 more rows, 1 more variable: subgraphs <list>, and abbreviated
#> #   variable names ¹​strength, ²​n_nodes_seen, ³​n_subgraphs, ⁴​max_size,
#> #   ⁵​rel_max_size, ⁶​avg_size, ⁷​avg_density, ⁸​n_triples
…
