Simulate a sticky association network — simulate_sticky_association_network • associationsubgraphs
…
#>       id stickiness cluster
#>    <int>      <dbl>   <int>
#>  1     1    1.37          2
#>  2     2    0.593         1
#>  3     3    0.889         2
#>  4     4    1.73          3
#>  5     5    0.647         1
#>  6     6    1.64          3
#>  7     7    1.60          1
#>  8     8    1.18          3
#>  9     9    0.00171       3
#> 10    10    0.355         2
#> 
#> $associations
#> # A tibble: 45 × 3
#>        b same_cluster strength
#>    <int> <lgl>           <dbl>
#>  1     2 FALSE          0.368 
#>  2     3 TRUE           0.172 
#>  3     4 FALSE          0.637 
#>  4     5 FALSE          0.0722
#>  5     6 FALSE          0.333 
#>  6     7 FALSE          0.688 
#>  7     8 FALSE          0.187 
#>  8     9 FALSE          0.211 
#>  9    10 TRUE           0.625 
#> 10     3 FALSE          0.293 
#> # … with 35 more rows
#> # ℹ Use `print(n = ...)` to see more rows
…
